EESchema Schematic File Version 4
EELAYER 29 0
EELAYER END
$Descr A4 11693 8268
encoding utf-8
Sheet 1 1
Title ""
Date ""
Rev ""
Comp ""
Comment1 ""
Comment2 ""
Comment3 ""
Comment4 ""
$EndDescr
$Comp
L power:+VSW #PWR01
U 1 1 5CCB5A05
P 1550 4450
F 0 "#PWR01" H 1550 4300 50  0001 C CNN
F 1 "+VSW" H 1565 4623 50  0000 C CNN
F 2 "" H 1550 4450 50  0001 C CNN
F 3 "" H 1550 4450 50  0001 C CNN
	1    1550 4450
	1    0    0    -1  
$EndComp
Wire Wire Line
	1550 4450 2050 4450
Text Label 2050 4650 2    50   ~ 0
PWR_EN
Text Label 2050 4750 2    50   ~ 0
BTN_IN
$Comp
L power:-BATT #PWR02
U 1 1 5CCB65F6
P 3150 4450
F 0 "#PWR02" H 3150 4300 50  0001 C CNN
F 1 "-BATT" H 3165 4623 50  0000 C CNN
F 2 "" H 3150 4450 50  0001 C CNN
F 3 "" H 3150 4450 50  0001 C CNN
	1    3150 4450
	-1   0    0    1   
$EndComp
Wire Wire Line
	2550 4450 3150 4450
Text Label 2550 4650 0    50   ~ 0
IR_MOD_OUT
Text Label 2550 4750 0    50   ~ 0
PWR_LED
Text Notes 1650 5000 0    50   ~ 0
2x7 1.27mm SMD header should fit\non the pads on the orig. PCB
$Comp
L MCU_ST_STM32F0:STM32F030F4Px U1
U 1 1 5CCB6E94
P 6000 4350
F 0 "U1" H 6250 5100 50  0000 C CNN
F 1 "STM32F030F4Px" H 6500 5000 50  0000 C CNN
F 2 "Housings_SSOP:TSSOP-20_4.4x6.5mm_Pitch0.65mm" H 5600 3650 50  0001 R CNN
F 3 "http://www.st.com/st-web-ui/static/active/en/resource/technical/document/datasheet/DM00088500.pdf" H 6000 4350 50  0001 C CNN
	1    6000 4350
	1    0    0    -1  
$EndComp
Text Label 6500 4350 0    50   ~ 0
SPI_SCK
Text Label 6500 4550 0    50   ~ 0
SPI_MOSI
Text Label 6500 4850 0    50   ~ 0
SWDIO
Text Label 6500 4950 0    50   ~ 0
SWCLK
$Comp
L power:-BATT #PWR06
U 1 1 5CCB7EFD
P 6000 5300
F 0 "#PWR06" H 6000 5150 50  0001 C CNN
F 1 "-BATT" H 6015 5473 50  0000 C CNN
F 2 "" H 6000 5300 50  0001 C CNN
F 3 "" H 6000 5300 50  0001 C CNN
	1    6000 5300
	-1   0    0    1   
$EndComp
Wire Wire Line
	6000 5150 6000 5300
Text Label 5500 4950 2    50   ~ 0
IR_MOD_OUT
Text Label 6500 3850 0    50   ~ 0
PWR_EN
$Comp
L Device:C_Small C4
U 1 1 5CCB99CD
P 5900 3450
F 0 "C4" V 5671 3450 50  0000 C CNN
F 1 "100nF" V 5762 3450 50  0000 C CNN
F 2 "Capacitors_SMD:C_0805_HandSoldering" H 5900 3450 50  0001 C CNN
F 3 "~" H 5900 3450 50  0001 C CNN
	1    5900 3450
	0    1    1    0   
$EndComp
$Comp
L power:+VSW #PWR07
U 1 1 5CCB89AD
P 6050 2450
F 0 "#PWR07" H 6050 2300 50  0001 C CNN
F 1 "+VSW" H 6065 2623 50  0000 C CNN
F 2 "" H 6050 2450 50  0001 C CNN
F 3 "" H 6050 2450 50  0001 C CNN
	1    6050 2450
	1    0    0    -1  
$EndComp
Wire Wire Line
	6000 3450 6000 3650
$Comp
L Device:C_Small C3
U 1 1 5CCBA80D
P 5900 3100
F 0 "C3" V 5671 3100 50  0000 C CNN
F 1 "100nF" V 5762 3100 50  0000 C CNN
F 2 "Capacitors_SMD:C_0805_HandSoldering" H 5900 3100 50  0001 C CNN
F 3 "~" H 5900 3100 50  0001 C CNN
	1    5900 3100
	0    1    1    0   
$EndComp
$Comp
L Device:C_Small C2
U 1 1 5CCBAA2C
P 5900 2750
F 0 "C2" V 5671 2750 50  0000 C CNN
F 1 "4.7uF" V 5762 2750 50  0000 C CNN
F 2 "Capacitors_SMD:C_0805_HandSoldering" H 5900 2750 50  0001 C CNN
F 3 "~" H 5900 2750 50  0001 C CNN
	1    5900 2750
	0    1    1    0   
$EndComp
$Comp
L Device:C_Small C6
U 1 1 5CCBACB4
P 6200 3450
F 0 "C6" V 5971 3450 50  0000 C CNN
F 1 "10nF" V 6062 3450 50  0000 C CNN
F 2 "Capacitors_SMD:C_0805_HandSoldering" H 6200 3450 50  0001 C CNN
F 3 "~" H 6200 3450 50  0001 C CNN
	1    6200 3450
	0    1    1    0   
$EndComp
$Comp
L Device:C_Small C5
U 1 1 5CCBB00A
P 6200 3100
F 0 "C5" V 5971 3100 50  0000 C CNN
F 1 "1uF" V 6062 3100 50  0000 C CNN
F 2 "Capacitors_SMD:C_0805_HandSoldering" H 6200 3100 50  0001 C CNN
F 3 "~" H 6200 3100 50  0001 C CNN
	1    6200 3100
	0    1    1    0   
$EndComp
Wire Wire Line
	6000 3450 6000 3100
Connection ~ 6000 3450
Wire Wire Line
	6000 3100 6000 2750
Connection ~ 6000 3100
Wire Wire Line
	6100 3450 6100 3650
Wire Wire Line
	6100 3450 6100 3100
Connection ~ 6100 3450
Wire Wire Line
	6000 2750 6000 2550
Wire Wire Line
	6000 2550 6050 2550
Wire Wire Line
	6050 2550 6050 2450
Connection ~ 6000 2750
Wire Wire Line
	6100 3100 6100 2550
Wire Wire Line
	6100 2550 6050 2550
Connection ~ 6100 3100
Connection ~ 6050 2550
$Comp
L Device:C_Small C1
U 1 1 5CCBC41D
P 5100 3950
F 0 "C1" H 5008 3904 50  0000 R CNN
F 1 "0.1uF" H 5008 3995 50  0000 R CNN
F 2 "Capacitors_SMD:C_0805_HandSoldering" H 5100 3950 50  0001 C CNN
F 3 "~" H 5100 3950 50  0001 C CNN
	1    5100 3950
	-1   0    0    1   
$EndComp
$Comp
L power:-BATT #PWR03
U 1 1 5CCBD52C
P 5100 4100
F 0 "#PWR03" H 5100 3950 50  0001 C CNN
F 1 "-BATT" H 5115 4273 50  0000 C CNN
F 2 "" H 5100 4100 50  0001 C CNN
F 3 "" H 5100 4100 50  0001 C CNN
	1    5100 4100
	-1   0    0    1   
$EndComp
$Comp
L power:-BATT #PWR05
U 1 1 5CCBD919
P 5650 3450
F 0 "#PWR05" H 5650 3300 50  0001 C CNN
F 1 "-BATT" H 5665 3623 50  0000 C CNN
F 2 "" H 5650 3450 50  0001 C CNN
F 3 "" H 5650 3450 50  0001 C CNN
	1    5650 3450
	-1   0    0    1   
$EndComp
Wire Wire Line
	5800 3450 5700 3450
Wire Wire Line
	5800 2750 5700 2750
Wire Wire Line
	5700 2750 5700 3100
Connection ~ 5700 3450
Wire Wire Line
	5700 3450 5650 3450
Wire Wire Line
	5800 3100 5700 3100
Connection ~ 5700 3100
Wire Wire Line
	5700 3100 5700 3450
$Comp
L power:-BATT #PWR08
U 1 1 5CCBE5D6
P 6600 3100
F 0 "#PWR08" H 6600 2950 50  0001 C CNN
F 1 "-BATT" H 6615 3273 50  0000 C CNN
F 2 "" H 6600 3100 50  0001 C CNN
F 3 "" H 6600 3100 50  0001 C CNN
	1    6600 3100
	-1   0    0    1   
$EndComp
Wire Wire Line
	6600 3100 6400 3100
Wire Wire Line
	6300 3450 6400 3450
Wire Wire Line
	6400 3450 6400 3100
Connection ~ 6400 3100
Wire Wire Line
	6400 3100 6300 3100
$Comp
L Device:R_Small R1
U 1 1 5CCBF341
P 5300 4150
F 0 "R1" H 5241 4104 50  0000 R CNN
F 1 "10k" H 5241 4195 50  0000 R CNN
F 2 "Resistors_SMD:R_0805_HandSoldering" H 5300 4150 50  0001 C CNN
F 3 "~" H 5300 4150 50  0001 C CNN
	1    5300 4150
	-1   0    0    1   
$EndComp
$Comp
L power:-BATT #PWR04
U 1 1 5CCBFBF8
P 5300 4350
F 0 "#PWR04" H 5300 4200 50  0001 C CNN
F 1 "-BATT" H 5315 4523 50  0000 C CNN
F 2 "" H 5300 4350 50  0001 C CNN
F 3 "" H 5300 4350 50  0001 C CNN
	1    5300 4350
	-1   0    0    1   
$EndComp
Wire Wire Line
	5300 4250 5300 4350
Wire Wire Line
	5300 4050 5500 4050
Text Label 2050 4150 2    50   ~ 0
LED1_2_EN
Text Label 2050 4250 2    50   ~ 0
LED1_2_EN
Text Label 2050 4350 2    50   ~ 0
LED3_4_EN
Text Label 2050 4550 2    50   ~ 0
LED3_4_EN
Text Label 2550 4350 0    50   ~ 0
LED5_7_EN
Text Label 2550 4150 0    50   ~ 0
LED6_8_EN
Text Label 2550 4250 0    50   ~ 0
LED6_8_EN
Text Label 2550 4550 0    50   ~ 0
LED5_7_EN
Text Label 6500 4050 0    50   ~ 0
LED1_2_EN
Text Label 6500 3950 0    50   ~ 0
LED3_4_EN
Text Label 6500 4150 0    50   ~ 0
LED5_7_EN
Text Label 6500 4250 0    50   ~ 0
LED6_8_EN
Text Label 6500 4450 0    50   ~ 0
IR_IN
Wire Wire Line
	5100 3850 5500 3850
Wire Wire Line
	5100 3850 4900 3850
Connection ~ 5100 3850
Wire Wire Line
	5100 4050 5100 4100
Text Label 4900 3850 2    50   ~ 0
NRST
$Comp
L Connector_Generic:Conn_01x06 J4
U 1 1 5CCC6B31
P 7950 4500
F 0 "J4" H 8030 4492 50  0000 L CNN
F 1 "DEBUG" H 8030 4401 50  0000 L CNN
F 2 "Pin_Headers:Pin_Header_Straight_1x06_Pitch2.54mm" H 7950 4500 50  0001 C CNN
F 3 "~" H 7950 4500 50  0001 C CNN
	1    7950 4500
	1    0    0    -1  
$EndComp
$Comp
L power:+VSW #PWR010
U 1 1 5CCC70E1
P 7650 4300
F 0 "#PWR010" H 7650 4150 50  0001 C CNN
F 1 "+VSW" H 7665 4473 50  0000 C CNN
F 2 "" H 7650 4300 50  0001 C CNN
F 3 "" H 7650 4300 50  0001 C CNN
	1    7650 4300
	1    0    0    -1  
$EndComp
$Comp
L power:-BATT #PWR09
U 1 1 5CCC7532
P 7400 4500
F 0 "#PWR09" H 7400 4350 50  0001 C CNN
F 1 "-BATT" H 7415 4673 50  0000 C CNN
F 2 "" H 7400 4500 50  0001 C CNN
F 3 "" H 7400 4500 50  0001 C CNN
	1    7400 4500
	-1   0    0    1   
$EndComp
Text Label 7750 4400 2    50   ~ 0
SWCLK
Text Label 7750 4600 2    50   ~ 0
SWDIO
Text Label 7750 4700 2    50   ~ 0
NRST
Wire Wire Line
	7650 4300 7750 4300
Wire Wire Line
	7750 4500 7400 4500
NoConn ~ 7750 4800
Text Label 5500 4750 2    50   ~ 0
PA0
Text Label 6500 4750 0    50   ~ 0
PA10
$Comp
L Connector_Generic:Conn_01x03 J3
U 1 1 5CCC96A1
P 7950 3650
F 0 "J3" H 8030 3692 50  0000 L CNN
F 1 "IR_RX" H 8030 3601 50  0000 L CNN
F 2 "Pin_Headers:Pin_Header_Straight_1x03_Pitch2.54mm" H 7950 3650 50  0001 C CNN
F 3 "~" H 7950 3650 50  0001 C CNN
	1    7950 3650
	1    0    0    -1  
$EndComp
$Comp
L Connector_Generic:Conn_01x04 J2
U 1 1 5CCCA467
P 7950 2850
F 0 "J2" H 8030 2842 50  0000 L CNN
F 1 "APA102" H 8030 2751 50  0000 L CNN
F 2 "Pin_Headers:Pin_Header_Straight_1x04_Pitch2.54mm" H 7950 2850 50  0001 C CNN
F 3 "~" H 7950 2850 50  0001 C CNN
	1    7950 2850
	1    0    0    -1  
$EndComp
$Comp
L power:+VSW #PWR013
U 1 1 5CCCAC92
P 7750 3550
F 0 "#PWR013" H 7750 3400 50  0001 C CNN
F 1 "+VSW" H 7765 3723 50  0000 C CNN
F 2 "" H 7750 3550 50  0001 C CNN
F 3 "" H 7750 3550 50  0001 C CNN
	1    7750 3550
	1    0    0    -1  
$EndComp
$Comp
L power:-BATT #PWR014
U 1 1 5CCCB00B
P 7750 3750
F 0 "#PWR014" H 7750 3600 50  0001 C CNN
F 1 "-BATT" H 7765 3923 50  0000 C CNN
F 2 "" H 7750 3750 50  0001 C CNN
F 3 "" H 7750 3750 50  0001 C CNN
	1    7750 3750
	-1   0    0    1   
$EndComp
Text Label 7750 3650 2    50   ~ 0
IR_IN
$Comp
L power:+VSW #PWR011
U 1 1 5CCCC50F
P 7750 2750
F 0 "#PWR011" H 7750 2600 50  0001 C CNN
F 1 "+VSW" H 7765 2923 50  0000 C CNN
F 2 "" H 7750 2750 50  0001 C CNN
F 3 "" H 7750 2750 50  0001 C CNN
	1    7750 2750
	1    0    0    -1  
$EndComp
$Comp
L power:-BATT #PWR012
U 1 1 5CCCC7CB
P 7750 3050
F 0 "#PWR012" H 7750 2900 50  0001 C CNN
F 1 "-BATT" H 7765 3223 50  0000 C CNN
F 2 "" H 7750 3050 50  0001 C CNN
F 3 "" H 7750 3050 50  0001 C CNN
	1    7750 3050
	-1   0    0    1   
$EndComp
Text Label 7750 2850 2    50   ~ 0
SPI_SCK
Text Label 7750 2950 2    50   ~ 0
SPI_MOSI
$Comp
L power:+VSW #PWR015
U 1 1 5CCDE887
P 7750 5200
F 0 "#PWR015" H 7750 5050 50  0001 C CNN
F 1 "+VSW" H 7765 5373 50  0000 C CNN
F 2 "" H 7750 5200 50  0001 C CNN
F 3 "" H 7750 5200 50  0001 C CNN
	1    7750 5200
	1    0    0    -1  
$EndComp
$Comp
L power:-BATT #PWR016
U 1 1 5CCDED12
P 7750 5500
F 0 "#PWR016" H 7750 5350 50  0001 C CNN
F 1 "-BATT" H 7765 5673 50  0000 C CNN
F 2 "" H 7750 5500 50  0001 C CNN
F 3 "" H 7750 5500 50  0001 C CNN
	1    7750 5500
	-1   0    0    1   
$EndComp
Text Label 7750 5300 2    50   ~ 0
PA0
Text Label 7750 5400 2    50   ~ 0
PA10
$Comp
L Connector_Generic:Conn_02x07_Odd_Even J1
U 1 1 5CCF6246
P 2250 4450
F 0 "J1" H 2300 4967 50  0000 C CNN
F 1 "ORIG_MCU_PINOUT" H 2300 4876 50  0000 C CNN
F 2 "Pin_Headers:Pin_Header_Straight_2x07_Pitch1.27mm" H 2250 4450 50  0001 C CNN
F 3 "~" H 2250 4450 50  0001 C CNN
	1    2250 4450
	1    0    0    -1  
$EndComp
Text Label 5500 4650 2    50   ~ 0
BTN_IN
Text Label 6500 4650 0    50   ~ 0
PWR_LED
$EndSCHEMATC
