G04 #@! TF.GenerationSoftware,KiCad,Pcbnew,(6.0.0-rc1-dev-1538-g72c885797)*
G04 #@! TF.CreationDate,2019-05-02T16:21:49-07:00
G04 #@! TF.ProjectId,recoil-grenade-refit,7265636f-696c-42d6-9772-656e6164652d,rev?*
G04 #@! TF.SameCoordinates,Original*
G04 #@! TF.FileFunction,Legend,Bot*
G04 #@! TF.FilePolarity,Positive*
%FSLAX46Y46*%
G04 Gerber Fmt 4.6, Leading zero omitted, Abs format (unit mm)*
G04 Created by KiCad (PCBNEW (6.0.0-rc1-dev-1538-g72c885797)) date 5/2/2019 4:21:49 PM*
%MOMM*%
%LPD*%
G04 APERTURE LIST*
%ADD10C,0.120000*%
%ADD11C,0.010000*%
%ADD12C,0.150000*%
G04 APERTURE END LIST*
D10*
X85256000Y-54876000D02*
X85256000Y-53876000D01*
X86956000Y-53876000D02*
X86956000Y-54876000D01*
X83478000Y-54876000D02*
X83478000Y-53876000D01*
X85178000Y-53876000D02*
X85178000Y-54876000D01*
X80987000Y-53963000D02*
X80987000Y-54963000D01*
X79287000Y-54963000D02*
X79287000Y-53963000D01*
D11*
G36*
X88779005Y-53732311D02*
G01*
X88787223Y-53837431D01*
X88801562Y-53931535D01*
X88813473Y-53980919D01*
X88872169Y-54139133D01*
X88952199Y-54285267D01*
X89051742Y-54417427D01*
X89168977Y-54533720D01*
X89302081Y-54632251D01*
X89449235Y-54711125D01*
X89554953Y-54752088D01*
X89716989Y-54793022D01*
X89880579Y-54809887D01*
X90043212Y-54803416D01*
X90202376Y-54774345D01*
X90355561Y-54723409D01*
X90500254Y-54651341D01*
X90633946Y-54558875D01*
X90754125Y-54446748D01*
X90806336Y-54386080D01*
X90890150Y-54265960D01*
X90960753Y-54133815D01*
X91013145Y-53999189D01*
X91018690Y-53980863D01*
X91033700Y-53911304D01*
X91044595Y-53824268D01*
X91051144Y-53727317D01*
X91053113Y-53628012D01*
X91050268Y-53533913D01*
X91042377Y-53452583D01*
X91036077Y-53417277D01*
X90991198Y-53265706D01*
X90924901Y-53124171D01*
X90835973Y-52990529D01*
X90723199Y-52862637D01*
X90720439Y-52859870D01*
X90596472Y-52749274D01*
X90468299Y-52662191D01*
X90332647Y-52596815D01*
X90186244Y-52551339D01*
X90145165Y-52542382D01*
X90061597Y-52530860D01*
X89964192Y-52525752D01*
X89916000Y-52526233D01*
X89916000Y-52822985D01*
X89986736Y-52823612D01*
X90039772Y-52826181D01*
X90082727Y-52831725D01*
X90123222Y-52841280D01*
X90168876Y-52855877D01*
X90175579Y-52858196D01*
X90314386Y-52919172D01*
X90437268Y-52999368D01*
X90542993Y-53097412D01*
X90630330Y-53211936D01*
X90698045Y-53341570D01*
X90744906Y-53484943D01*
X90746874Y-53493287D01*
X90757840Y-53569732D01*
X90760452Y-53660454D01*
X90755166Y-53755977D01*
X90742439Y-53846823D01*
X90726720Y-53911342D01*
X90684158Y-54022716D01*
X90627819Y-54122340D01*
X90553401Y-54217132D01*
X90504941Y-54267995D01*
X90392177Y-54363566D01*
X90270002Y-54435621D01*
X90138512Y-54484121D01*
X89997808Y-54509024D01*
X89916000Y-54512647D01*
X89770334Y-54500981D01*
X89634264Y-54465899D01*
X89507496Y-54407280D01*
X89389733Y-54325000D01*
X89326505Y-54267448D01*
X89231531Y-54160560D01*
X89160316Y-54050760D01*
X89111298Y-53934318D01*
X89082912Y-53807505D01*
X89073594Y-53666593D01*
X89073592Y-53664309D01*
X89074439Y-53594605D01*
X89077892Y-53541087D01*
X89085254Y-53494639D01*
X89097830Y-53446144D01*
X89110635Y-53405487D01*
X89167770Y-53270516D01*
X89245462Y-53149534D01*
X89342228Y-53044024D01*
X89456587Y-52955472D01*
X89587058Y-52885365D01*
X89656421Y-52858196D01*
X89703304Y-52842868D01*
X89744039Y-52832717D01*
X89786244Y-52826710D01*
X89837540Y-52823814D01*
X89905548Y-52822993D01*
X89916000Y-52822985D01*
X89916000Y-52526233D01*
X89860937Y-52526784D01*
X89759820Y-52533685D01*
X89668827Y-52546180D01*
X89606081Y-52560794D01*
X89446830Y-52620373D01*
X89302316Y-52699686D01*
X89169936Y-52800353D01*
X89078895Y-52888864D01*
X88971494Y-53021292D01*
X88886446Y-53164701D01*
X88824446Y-53317763D01*
X88794073Y-53435144D01*
X88782130Y-53522738D01*
X88777207Y-53624603D01*
X88779005Y-53732311D01*
X88779005Y-53732311D01*
G37*
X88779005Y-53732311D02*
X88787223Y-53837431D01*
X88801562Y-53931535D01*
X88813473Y-53980919D01*
X88872169Y-54139133D01*
X88952199Y-54285267D01*
X89051742Y-54417427D01*
X89168977Y-54533720D01*
X89302081Y-54632251D01*
X89449235Y-54711125D01*
X89554953Y-54752088D01*
X89716989Y-54793022D01*
X89880579Y-54809887D01*
X90043212Y-54803416D01*
X90202376Y-54774345D01*
X90355561Y-54723409D01*
X90500254Y-54651341D01*
X90633946Y-54558875D01*
X90754125Y-54446748D01*
X90806336Y-54386080D01*
X90890150Y-54265960D01*
X90960753Y-54133815D01*
X91013145Y-53999189D01*
X91018690Y-53980863D01*
X91033700Y-53911304D01*
X91044595Y-53824268D01*
X91051144Y-53727317D01*
X91053113Y-53628012D01*
X91050268Y-53533913D01*
X91042377Y-53452583D01*
X91036077Y-53417277D01*
X90991198Y-53265706D01*
X90924901Y-53124171D01*
X90835973Y-52990529D01*
X90723199Y-52862637D01*
X90720439Y-52859870D01*
X90596472Y-52749274D01*
X90468299Y-52662191D01*
X90332647Y-52596815D01*
X90186244Y-52551339D01*
X90145165Y-52542382D01*
X90061597Y-52530860D01*
X89964192Y-52525752D01*
X89916000Y-52526233D01*
X89916000Y-52822985D01*
X89986736Y-52823612D01*
X90039772Y-52826181D01*
X90082727Y-52831725D01*
X90123222Y-52841280D01*
X90168876Y-52855877D01*
X90175579Y-52858196D01*
X90314386Y-52919172D01*
X90437268Y-52999368D01*
X90542993Y-53097412D01*
X90630330Y-53211936D01*
X90698045Y-53341570D01*
X90744906Y-53484943D01*
X90746874Y-53493287D01*
X90757840Y-53569732D01*
X90760452Y-53660454D01*
X90755166Y-53755977D01*
X90742439Y-53846823D01*
X90726720Y-53911342D01*
X90684158Y-54022716D01*
X90627819Y-54122340D01*
X90553401Y-54217132D01*
X90504941Y-54267995D01*
X90392177Y-54363566D01*
X90270002Y-54435621D01*
X90138512Y-54484121D01*
X89997808Y-54509024D01*
X89916000Y-54512647D01*
X89770334Y-54500981D01*
X89634264Y-54465899D01*
X89507496Y-54407280D01*
X89389733Y-54325000D01*
X89326505Y-54267448D01*
X89231531Y-54160560D01*
X89160316Y-54050760D01*
X89111298Y-53934318D01*
X89082912Y-53807505D01*
X89073594Y-53666593D01*
X89073592Y-53664309D01*
X89074439Y-53594605D01*
X89077892Y-53541087D01*
X89085254Y-53494639D01*
X89097830Y-53446144D01*
X89110635Y-53405487D01*
X89167770Y-53270516D01*
X89245462Y-53149534D01*
X89342228Y-53044024D01*
X89456587Y-52955472D01*
X89587058Y-52885365D01*
X89656421Y-52858196D01*
X89703304Y-52842868D01*
X89744039Y-52832717D01*
X89786244Y-52826710D01*
X89837540Y-52823814D01*
X89905548Y-52822993D01*
X89916000Y-52822985D01*
X89916000Y-52526233D01*
X89860937Y-52526784D01*
X89759820Y-52533685D01*
X89668827Y-52546180D01*
X89606081Y-52560794D01*
X89446830Y-52620373D01*
X89302316Y-52699686D01*
X89169936Y-52800353D01*
X89078895Y-52888864D01*
X88971494Y-53021292D01*
X88886446Y-53164701D01*
X88824446Y-53317763D01*
X88794073Y-53435144D01*
X88782130Y-53522738D01*
X88777207Y-53624603D01*
X88779005Y-53732311D01*
G36*
X88509520Y-59658039D02*
G01*
X88551727Y-59829751D01*
X88614160Y-59994727D01*
X88695876Y-60150898D01*
X88795934Y-60296191D01*
X88913389Y-60428537D01*
X89047301Y-60545864D01*
X89196725Y-60646103D01*
X89360720Y-60727182D01*
X89375792Y-60733321D01*
X89456078Y-60764353D01*
X89525135Y-60787734D01*
X89589042Y-60804513D01*
X89653874Y-60815741D01*
X89725709Y-60822466D01*
X89810623Y-60825737D01*
X89914692Y-60826605D01*
X89916000Y-60826605D01*
X90020321Y-60825758D01*
X90105417Y-60822520D01*
X90177365Y-60815840D01*
X90242242Y-60804669D01*
X90306126Y-60787958D01*
X90375091Y-60764657D01*
X90455216Y-60733718D01*
X90456208Y-60733321D01*
X90620570Y-60654188D01*
X90771892Y-60554706D01*
X90908730Y-60437051D01*
X91029638Y-60303402D01*
X91133173Y-60155936D01*
X91217889Y-59996831D01*
X91282341Y-59828264D01*
X91325085Y-59652415D01*
X91344677Y-59471459D01*
X91345623Y-59392644D01*
X91344197Y-59337250D01*
X91342084Y-59287201D01*
X91339676Y-59251232D01*
X91338982Y-59244708D01*
X91305374Y-59068846D01*
X91249902Y-58896721D01*
X91174544Y-58732254D01*
X91081277Y-58579362D01*
X90972079Y-58441965D01*
X90894309Y-58363571D01*
X90746535Y-58243962D01*
X90588703Y-58146447D01*
X90422886Y-58071023D01*
X90251160Y-58017687D01*
X90075599Y-57986436D01*
X89954632Y-57980181D01*
X89954632Y-58275827D01*
X90115039Y-58292910D01*
X90258045Y-58328672D01*
X90409963Y-58389928D01*
X90551655Y-58471849D01*
X90679242Y-58571815D01*
X90788846Y-58687208D01*
X90788922Y-58687302D01*
X90888447Y-58828725D01*
X90963998Y-58978062D01*
X91015381Y-59134486D01*
X91042405Y-59297173D01*
X91044876Y-59465297D01*
X91022602Y-59638034D01*
X91017012Y-59664759D01*
X90970548Y-59817729D01*
X90900347Y-59963724D01*
X90807483Y-60100898D01*
X90693033Y-60227400D01*
X90685502Y-60234610D01*
X90557433Y-60339640D01*
X90419001Y-60422782D01*
X90272585Y-60484047D01*
X90120568Y-60523444D01*
X89965329Y-60540984D01*
X89809251Y-60536677D01*
X89654713Y-60510534D01*
X89504098Y-60462565D01*
X89359785Y-60392779D01*
X89224155Y-60301188D01*
X89139671Y-60227957D01*
X89023088Y-60100422D01*
X88929460Y-59962599D01*
X88859083Y-59815163D01*
X88812251Y-59658785D01*
X88789258Y-59494139D01*
X88786778Y-59422065D01*
X88790046Y-59304592D01*
X88801899Y-59202111D01*
X88823785Y-59105305D01*
X88847618Y-59030924D01*
X88914228Y-58879417D01*
X89000082Y-58742249D01*
X89102975Y-58620519D01*
X89220702Y-58515325D01*
X89351055Y-58427765D01*
X89491831Y-58358937D01*
X89640822Y-58309939D01*
X89795825Y-58281870D01*
X89954632Y-58275827D01*
X89954632Y-57980181D01*
X89898279Y-57977267D01*
X89721272Y-57990177D01*
X89546656Y-58025162D01*
X89376503Y-58082220D01*
X89212889Y-58161348D01*
X89057889Y-58262543D01*
X88933879Y-58366450D01*
X88825078Y-58482617D01*
X88725885Y-58616760D01*
X88640682Y-58762067D01*
X88573848Y-58911724D01*
X88561807Y-58945248D01*
X88513683Y-59123195D01*
X88489555Y-59302690D01*
X88488482Y-59481662D01*
X88509520Y-59658039D01*
X88509520Y-59658039D01*
G37*
X88509520Y-59658039D02*
X88551727Y-59829751D01*
X88614160Y-59994727D01*
X88695876Y-60150898D01*
X88795934Y-60296191D01*
X88913389Y-60428537D01*
X89047301Y-60545864D01*
X89196725Y-60646103D01*
X89360720Y-60727182D01*
X89375792Y-60733321D01*
X89456078Y-60764353D01*
X89525135Y-60787734D01*
X89589042Y-60804513D01*
X89653874Y-60815741D01*
X89725709Y-60822466D01*
X89810623Y-60825737D01*
X89914692Y-60826605D01*
X89916000Y-60826605D01*
X90020321Y-60825758D01*
X90105417Y-60822520D01*
X90177365Y-60815840D01*
X90242242Y-60804669D01*
X90306126Y-60787958D01*
X90375091Y-60764657D01*
X90455216Y-60733718D01*
X90456208Y-60733321D01*
X90620570Y-60654188D01*
X90771892Y-60554706D01*
X90908730Y-60437051D01*
X91029638Y-60303402D01*
X91133173Y-60155936D01*
X91217889Y-59996831D01*
X91282341Y-59828264D01*
X91325085Y-59652415D01*
X91344677Y-59471459D01*
X91345623Y-59392644D01*
X91344197Y-59337250D01*
X91342084Y-59287201D01*
X91339676Y-59251232D01*
X91338982Y-59244708D01*
X91305374Y-59068846D01*
X91249902Y-58896721D01*
X91174544Y-58732254D01*
X91081277Y-58579362D01*
X90972079Y-58441965D01*
X90894309Y-58363571D01*
X90746535Y-58243962D01*
X90588703Y-58146447D01*
X90422886Y-58071023D01*
X90251160Y-58017687D01*
X90075599Y-57986436D01*
X89954632Y-57980181D01*
X89954632Y-58275827D01*
X90115039Y-58292910D01*
X90258045Y-58328672D01*
X90409963Y-58389928D01*
X90551655Y-58471849D01*
X90679242Y-58571815D01*
X90788846Y-58687208D01*
X90788922Y-58687302D01*
X90888447Y-58828725D01*
X90963998Y-58978062D01*
X91015381Y-59134486D01*
X91042405Y-59297173D01*
X91044876Y-59465297D01*
X91022602Y-59638034D01*
X91017012Y-59664759D01*
X90970548Y-59817729D01*
X90900347Y-59963724D01*
X90807483Y-60100898D01*
X90693033Y-60227400D01*
X90685502Y-60234610D01*
X90557433Y-60339640D01*
X90419001Y-60422782D01*
X90272585Y-60484047D01*
X90120568Y-60523444D01*
X89965329Y-60540984D01*
X89809251Y-60536677D01*
X89654713Y-60510534D01*
X89504098Y-60462565D01*
X89359785Y-60392779D01*
X89224155Y-60301188D01*
X89139671Y-60227957D01*
X89023088Y-60100422D01*
X88929460Y-59962599D01*
X88859083Y-59815163D01*
X88812251Y-59658785D01*
X88789258Y-59494139D01*
X88786778Y-59422065D01*
X88790046Y-59304592D01*
X88801899Y-59202111D01*
X88823785Y-59105305D01*
X88847618Y-59030924D01*
X88914228Y-58879417D01*
X89000082Y-58742249D01*
X89102975Y-58620519D01*
X89220702Y-58515325D01*
X89351055Y-58427765D01*
X89491831Y-58358937D01*
X89640822Y-58309939D01*
X89795825Y-58281870D01*
X89954632Y-58275827D01*
X89954632Y-57980181D01*
X89898279Y-57977267D01*
X89721272Y-57990177D01*
X89546656Y-58025162D01*
X89376503Y-58082220D01*
X89212889Y-58161348D01*
X89057889Y-58262543D01*
X88933879Y-58366450D01*
X88825078Y-58482617D01*
X88725885Y-58616760D01*
X88640682Y-58762067D01*
X88573848Y-58911724D01*
X88561807Y-58945248D01*
X88513683Y-59123195D01*
X88489555Y-59302690D01*
X88488482Y-59481662D01*
X88509520Y-59658039D01*
G36*
X88212513Y-53854162D02*
G01*
X88225381Y-53955681D01*
X88263915Y-54126319D01*
X88323522Y-54299470D01*
X88401530Y-54468804D01*
X88495268Y-54627991D01*
X88530858Y-54679528D01*
X88589657Y-54753588D01*
X88662925Y-54834287D01*
X88744315Y-54915440D01*
X88827482Y-54990859D01*
X88906077Y-55054358D01*
X88940732Y-55079067D01*
X89120515Y-55186875D01*
X89304272Y-55270040D01*
X89494005Y-55329182D01*
X89691720Y-55364918D01*
X89899420Y-55377866D01*
X89909666Y-55377925D01*
X90087527Y-55371509D01*
X90250811Y-55349975D01*
X90406367Y-55311729D01*
X90561043Y-55255179D01*
X90685278Y-55197441D01*
X90863021Y-55094167D01*
X91025719Y-54971726D01*
X91172000Y-54831964D01*
X91300495Y-54676727D01*
X91409832Y-54507863D01*
X91498643Y-54327216D01*
X91565556Y-54136633D01*
X91606180Y-53956615D01*
X91615642Y-53880233D01*
X91621784Y-53788432D01*
X91624587Y-53688542D01*
X91624034Y-53587890D01*
X91620109Y-53493805D01*
X91612793Y-53413616D01*
X91607539Y-53379272D01*
X91556832Y-53170866D01*
X91484456Y-52974416D01*
X91391299Y-52791075D01*
X91278250Y-52621996D01*
X91146198Y-52468331D01*
X90996033Y-52331233D01*
X90828644Y-52211855D01*
X90644919Y-52111349D01*
X90620967Y-52100224D01*
X90440444Y-52031435D01*
X90249603Y-51983893D01*
X90052294Y-51957836D01*
X89945943Y-51955533D01*
X89945943Y-52253107D01*
X90029635Y-52255114D01*
X90104030Y-52259494D01*
X90162225Y-52266249D01*
X90175701Y-52268783D01*
X90363224Y-52320889D01*
X90538857Y-52393792D01*
X90700880Y-52486440D01*
X90847571Y-52597783D01*
X90977210Y-52726769D01*
X91029503Y-52790261D01*
X91135815Y-52947542D01*
X91219982Y-53114624D01*
X91281414Y-53289254D01*
X91319523Y-53469181D01*
X91333721Y-53652155D01*
X91323417Y-53835925D01*
X91316212Y-53886292D01*
X91273896Y-54070812D01*
X91209243Y-54244862D01*
X91123603Y-54406964D01*
X91018327Y-54555642D01*
X90894764Y-54689417D01*
X90754264Y-54806812D01*
X90598179Y-54906350D01*
X90427857Y-54986554D01*
X90260193Y-55041875D01*
X90209365Y-55054662D01*
X90163833Y-55063723D01*
X90117180Y-55069715D01*
X90062986Y-55073292D01*
X89994833Y-55075111D01*
X89928668Y-55075725D01*
X89830648Y-55075209D01*
X89752455Y-55072257D01*
X89688664Y-55066503D01*
X89633850Y-55057581D01*
X89621648Y-55054977D01*
X89439591Y-55001734D01*
X89268227Y-54926302D01*
X89109301Y-54830151D01*
X88964558Y-54714751D01*
X88835741Y-54581573D01*
X88724595Y-54432085D01*
X88632864Y-54267760D01*
X88600352Y-54194198D01*
X88543218Y-54021717D01*
X88509444Y-53842876D01*
X88498901Y-53660816D01*
X88511459Y-53478679D01*
X88546990Y-53299604D01*
X88605366Y-53126732D01*
X88647897Y-53033982D01*
X88745229Y-52868578D01*
X88860821Y-52720394D01*
X88993671Y-52590191D01*
X89142780Y-52478727D01*
X89307146Y-52386763D01*
X89485768Y-52315056D01*
X89656299Y-52268810D01*
X89708133Y-52261326D01*
X89778288Y-52256213D01*
X89859860Y-52253474D01*
X89945943Y-52253107D01*
X89945943Y-51955533D01*
X89852368Y-51953505D01*
X89653673Y-51971141D01*
X89460060Y-52010983D01*
X89411854Y-52024759D01*
X89222829Y-52095033D01*
X89044315Y-52187289D01*
X88878129Y-52299707D01*
X88726089Y-52430471D01*
X88590014Y-52577761D01*
X88471720Y-52739761D01*
X88373027Y-52914652D01*
X88295752Y-53100617D01*
X88276450Y-53160163D01*
X88237214Y-53323074D01*
X88213129Y-53498496D01*
X88204721Y-53678251D01*
X88212513Y-53854162D01*
X88212513Y-53854162D01*
G37*
X88212513Y-53854162D02*
X88225381Y-53955681D01*
X88263915Y-54126319D01*
X88323522Y-54299470D01*
X88401530Y-54468804D01*
X88495268Y-54627991D01*
X88530858Y-54679528D01*
X88589657Y-54753588D01*
X88662925Y-54834287D01*
X88744315Y-54915440D01*
X88827482Y-54990859D01*
X88906077Y-55054358D01*
X88940732Y-55079067D01*
X89120515Y-55186875D01*
X89304272Y-55270040D01*
X89494005Y-55329182D01*
X89691720Y-55364918D01*
X89899420Y-55377866D01*
X89909666Y-55377925D01*
X90087527Y-55371509D01*
X90250811Y-55349975D01*
X90406367Y-55311729D01*
X90561043Y-55255179D01*
X90685278Y-55197441D01*
X90863021Y-55094167D01*
X91025719Y-54971726D01*
X91172000Y-54831964D01*
X91300495Y-54676727D01*
X91409832Y-54507863D01*
X91498643Y-54327216D01*
X91565556Y-54136633D01*
X91606180Y-53956615D01*
X91615642Y-53880233D01*
X91621784Y-53788432D01*
X91624587Y-53688542D01*
X91624034Y-53587890D01*
X91620109Y-53493805D01*
X91612793Y-53413616D01*
X91607539Y-53379272D01*
X91556832Y-53170866D01*
X91484456Y-52974416D01*
X91391299Y-52791075D01*
X91278250Y-52621996D01*
X91146198Y-52468331D01*
X90996033Y-52331233D01*
X90828644Y-52211855D01*
X90644919Y-52111349D01*
X90620967Y-52100224D01*
X90440444Y-52031435D01*
X90249603Y-51983893D01*
X90052294Y-51957836D01*
X89945943Y-51955533D01*
X89945943Y-52253107D01*
X90029635Y-52255114D01*
X90104030Y-52259494D01*
X90162225Y-52266249D01*
X90175701Y-52268783D01*
X90363224Y-52320889D01*
X90538857Y-52393792D01*
X90700880Y-52486440D01*
X90847571Y-52597783D01*
X90977210Y-52726769D01*
X91029503Y-52790261D01*
X91135815Y-52947542D01*
X91219982Y-53114624D01*
X91281414Y-53289254D01*
X91319523Y-53469181D01*
X91333721Y-53652155D01*
X91323417Y-53835925D01*
X91316212Y-53886292D01*
X91273896Y-54070812D01*
X91209243Y-54244862D01*
X91123603Y-54406964D01*
X91018327Y-54555642D01*
X90894764Y-54689417D01*
X90754264Y-54806812D01*
X90598179Y-54906350D01*
X90427857Y-54986554D01*
X90260193Y-55041875D01*
X90209365Y-55054662D01*
X90163833Y-55063723D01*
X90117180Y-55069715D01*
X90062986Y-55073292D01*
X89994833Y-55075111D01*
X89928668Y-55075725D01*
X89830648Y-55075209D01*
X89752455Y-55072257D01*
X89688664Y-55066503D01*
X89633850Y-55057581D01*
X89621648Y-55054977D01*
X89439591Y-55001734D01*
X89268227Y-54926302D01*
X89109301Y-54830151D01*
X88964558Y-54714751D01*
X88835741Y-54581573D01*
X88724595Y-54432085D01*
X88632864Y-54267760D01*
X88600352Y-54194198D01*
X88543218Y-54021717D01*
X88509444Y-53842876D01*
X88498901Y-53660816D01*
X88511459Y-53478679D01*
X88546990Y-53299604D01*
X88605366Y-53126732D01*
X88647897Y-53033982D01*
X88745229Y-52868578D01*
X88860821Y-52720394D01*
X88993671Y-52590191D01*
X89142780Y-52478727D01*
X89307146Y-52386763D01*
X89485768Y-52315056D01*
X89656299Y-52268810D01*
X89708133Y-52261326D01*
X89778288Y-52256213D01*
X89859860Y-52253474D01*
X89945943Y-52253107D01*
X89945943Y-51955533D01*
X89852368Y-51953505D01*
X89653673Y-51971141D01*
X89460060Y-52010983D01*
X89411854Y-52024759D01*
X89222829Y-52095033D01*
X89044315Y-52187289D01*
X88878129Y-52299707D01*
X88726089Y-52430471D01*
X88590014Y-52577761D01*
X88471720Y-52739761D01*
X88373027Y-52914652D01*
X88295752Y-53100617D01*
X88276450Y-53160163D01*
X88237214Y-53323074D01*
X88213129Y-53498496D01*
X88204721Y-53678251D01*
X88212513Y-53854162D01*
G36*
X87643553Y-53787160D02*
G01*
X87646528Y-53890313D01*
X87652505Y-53979371D01*
X87662316Y-54059939D01*
X87676794Y-54137619D01*
X87696772Y-54218016D01*
X87723083Y-54306732D01*
X87751004Y-54392738D01*
X87837049Y-54612101D01*
X87944551Y-54819652D01*
X88072022Y-55014031D01*
X88217972Y-55193876D01*
X88380914Y-55357826D01*
X88559359Y-55504520D01*
X88751817Y-55632597D01*
X88956801Y-55740697D01*
X89172822Y-55827457D01*
X89387604Y-55889037D01*
X89485470Y-55911805D01*
X89482206Y-56683895D01*
X89478943Y-57455986D01*
X89371262Y-57484936D01*
X89174691Y-57550613D01*
X88984631Y-57639292D01*
X88803427Y-57748981D01*
X88633422Y-57877692D01*
X88476960Y-58023433D01*
X88336386Y-58184215D01*
X88214043Y-58358047D01*
X88112276Y-58542938D01*
X88103675Y-58561195D01*
X88020605Y-58769494D01*
X87961786Y-58982845D01*
X87927078Y-59199449D01*
X87916339Y-59417506D01*
X87929428Y-59635215D01*
X87966204Y-59850777D01*
X88026527Y-60062392D01*
X88110254Y-60268259D01*
X88217246Y-60466578D01*
X88257954Y-60530543D01*
X88351378Y-60655832D01*
X88464383Y-60781232D01*
X88591672Y-60902071D01*
X88727946Y-61013675D01*
X88867906Y-61111373D01*
X89006253Y-61190490D01*
X89006274Y-61190500D01*
X89190118Y-61273483D01*
X89370914Y-61334976D01*
X89554558Y-61376369D01*
X89746948Y-61399050D01*
X89916000Y-61404658D01*
X90042369Y-61402287D01*
X90153288Y-61394431D01*
X90258264Y-61379978D01*
X90366805Y-61357817D01*
X90413857Y-61346417D01*
X90621133Y-61281413D01*
X90820631Y-61193067D01*
X91009705Y-61082847D01*
X91185713Y-60952221D01*
X91287638Y-60861129D01*
X91441592Y-60699146D01*
X91572482Y-60529949D01*
X91681618Y-60351117D01*
X91770309Y-60160228D01*
X91839867Y-59954860D01*
X91888011Y-59751441D01*
X91901143Y-59659003D01*
X91909046Y-59549166D01*
X91911784Y-59429312D01*
X91909422Y-59306819D01*
X91902026Y-59189067D01*
X91889662Y-59083436D01*
X91881715Y-59037866D01*
X91824735Y-58813660D01*
X91746000Y-58602011D01*
X91646178Y-58403785D01*
X91525936Y-58219845D01*
X91385939Y-58051056D01*
X91226854Y-57898282D01*
X91049349Y-57762387D01*
X90854090Y-57644237D01*
X90776260Y-57604601D01*
X90716070Y-57576353D01*
X90659275Y-57552099D01*
X90600160Y-57529805D01*
X90533011Y-57507438D01*
X90452111Y-57482965D01*
X90362559Y-57457382D01*
X90359154Y-57451415D01*
X90356240Y-57434525D01*
X90353784Y-57405146D01*
X90351754Y-57361712D01*
X90350118Y-57302656D01*
X90348844Y-57226413D01*
X90347900Y-57131414D01*
X90347254Y-57016095D01*
X90346874Y-56878889D01*
X90346727Y-56718230D01*
X90346723Y-56682823D01*
X90346723Y-55912711D01*
X90487989Y-55876716D01*
X90713210Y-55806573D01*
X90927422Y-55714444D01*
X91129377Y-55601722D01*
X91317826Y-55469801D01*
X91491519Y-55320077D01*
X91649209Y-55153944D01*
X91789646Y-54972796D01*
X91911583Y-54778027D01*
X92013769Y-54571032D01*
X92094958Y-54353204D01*
X92153899Y-54125940D01*
X92177427Y-53990157D01*
X92184285Y-53925661D01*
X92189410Y-53844695D01*
X92192756Y-53753348D01*
X92194275Y-53657711D01*
X92193922Y-53563874D01*
X92191650Y-53477926D01*
X92187413Y-53405957D01*
X92182223Y-53360269D01*
X92150712Y-53189512D01*
X92113432Y-53037840D01*
X92092470Y-52968142D01*
X92007568Y-52743434D01*
X91901599Y-52531938D01*
X91775703Y-52334669D01*
X91631023Y-52152643D01*
X91468698Y-51986876D01*
X91289871Y-51838385D01*
X91095683Y-51708186D01*
X90887275Y-51597293D01*
X90665787Y-51506724D01*
X90432361Y-51437495D01*
X90353057Y-51419537D01*
X90305104Y-51410021D01*
X90260949Y-51402814D01*
X90215902Y-51397611D01*
X90165277Y-51394108D01*
X90104385Y-51392001D01*
X90028537Y-51390987D01*
X89933045Y-51390760D01*
X89909666Y-51390785D01*
X89874759Y-51391076D01*
X89874759Y-51681249D01*
X90002407Y-51682243D01*
X90125015Y-51688832D01*
X90235145Y-51701014D01*
X90296050Y-51711834D01*
X90517835Y-51770681D01*
X90724576Y-51849555D01*
X90917620Y-51949158D01*
X91098314Y-52070197D01*
X91268004Y-52213377D01*
X91284784Y-52229288D01*
X91441598Y-52396145D01*
X91575879Y-52574587D01*
X91687618Y-52764595D01*
X91776805Y-52966150D01*
X91843430Y-53179233D01*
X91886686Y-53398274D01*
X91896574Y-53498552D01*
X91900515Y-53614823D01*
X91898767Y-53738513D01*
X91891588Y-53861050D01*
X91879235Y-53973862D01*
X91867261Y-54044359D01*
X91809980Y-54265362D01*
X91731122Y-54473148D01*
X91630485Y-54668101D01*
X91507870Y-54850607D01*
X91363074Y-55021049D01*
X91349025Y-55035731D01*
X91192316Y-55183962D01*
X91029520Y-55309634D01*
X90856715Y-55415431D01*
X90669979Y-55504037D01*
X90657368Y-55509224D01*
X90579711Y-55537801D01*
X90489126Y-55566252D01*
X90393714Y-55592427D01*
X90301577Y-55614175D01*
X90220817Y-55629347D01*
X90188369Y-55633674D01*
X90142149Y-55639139D01*
X90102495Y-55644624D01*
X90083855Y-55647810D01*
X90055352Y-55653719D01*
X90055352Y-57705023D01*
X90083855Y-57710334D01*
X90108717Y-57714843D01*
X90151138Y-57722419D01*
X90203723Y-57731743D01*
X90228942Y-57736194D01*
X90420513Y-57782618D01*
X90605310Y-57852325D01*
X90781109Y-57943673D01*
X90945685Y-58055019D01*
X91096811Y-58184721D01*
X91232262Y-58331137D01*
X91349814Y-58492624D01*
X91421638Y-58616385D01*
X91504395Y-58797685D01*
X91563447Y-58981152D01*
X91599747Y-59170703D01*
X91614249Y-59370257D01*
X91614619Y-59409396D01*
X91610281Y-59553513D01*
X91596262Y-59683259D01*
X91571056Y-59808246D01*
X91533158Y-59938085D01*
X91530535Y-59945979D01*
X91453828Y-60136426D01*
X91355845Y-60314616D01*
X91238181Y-60478953D01*
X91102432Y-60627841D01*
X90950191Y-60759684D01*
X90783054Y-60872886D01*
X90602615Y-60965850D01*
X90454404Y-61023041D01*
X90351307Y-61055110D01*
X90259076Y-61078186D01*
X90169549Y-61093532D01*
X90074563Y-61102413D01*
X89965956Y-61106090D01*
X89916000Y-61106388D01*
X89813256Y-61105173D01*
X89730174Y-61101263D01*
X89661181Y-61094258D01*
X89600879Y-61083795D01*
X89400193Y-61031013D01*
X89216607Y-60961148D01*
X89047185Y-60872625D01*
X88888990Y-60763867D01*
X88739084Y-60633299D01*
X88712445Y-60607047D01*
X88581312Y-60461935D01*
X88472590Y-60311017D01*
X88383376Y-60149617D01*
X88310769Y-59973060D01*
X88300634Y-59943495D01*
X88262101Y-59813106D01*
X88236367Y-59687379D01*
X88221953Y-59556839D01*
X88217383Y-59412010D01*
X88217381Y-59409396D01*
X88221683Y-59265762D01*
X88235601Y-59136462D01*
X88260655Y-59011824D01*
X88298364Y-58882174D01*
X88301868Y-58871611D01*
X88376944Y-58685026D01*
X88472662Y-58510061D01*
X88587186Y-58348302D01*
X88718676Y-58201338D01*
X88865295Y-58070754D01*
X89025205Y-57958139D01*
X89196568Y-57865079D01*
X89377546Y-57793162D01*
X89566301Y-57743975D01*
X89618294Y-57734808D01*
X89673366Y-57725919D01*
X89719751Y-57718134D01*
X89751268Y-57712506D01*
X89760813Y-57710516D01*
X89763785Y-57704888D01*
X89766387Y-57688776D01*
X89768639Y-57660812D01*
X89770563Y-57619628D01*
X89772179Y-57563853D01*
X89773508Y-57492121D01*
X89774572Y-57403062D01*
X89775392Y-57295307D01*
X89775988Y-57167488D01*
X89776382Y-57018237D01*
X89776595Y-56846184D01*
X89776648Y-56680545D01*
X89776648Y-55654789D01*
X89716474Y-55647044D01*
X89529179Y-55616222D01*
X89356734Y-55572982D01*
X89190698Y-55514884D01*
X89057981Y-55456624D01*
X88863254Y-55350261D01*
X88683732Y-55224238D01*
X88520428Y-55079885D01*
X88374359Y-54918533D01*
X88246539Y-54741514D01*
X88137984Y-54550159D01*
X88049709Y-54345797D01*
X87982729Y-54129760D01*
X87956543Y-54012688D01*
X87944112Y-53925688D01*
X87936314Y-53820930D01*
X87933079Y-53705554D01*
X87934339Y-53586699D01*
X87940023Y-53471505D01*
X87950063Y-53367109D01*
X87963611Y-53284259D01*
X88022695Y-53061661D01*
X88102224Y-52853736D01*
X88202687Y-52659540D01*
X88324577Y-52478131D01*
X88468384Y-52308565D01*
X88476021Y-52300524D01*
X88641837Y-52144024D01*
X88819363Y-52009826D01*
X89009260Y-51897563D01*
X89212191Y-51806865D01*
X89428819Y-51737365D01*
X89535950Y-51711834D01*
X89634092Y-51696045D01*
X89749508Y-51685850D01*
X89874759Y-51681249D01*
X89874759Y-51391076D01*
X89787947Y-51391800D01*
X89685874Y-51394987D01*
X89597795Y-51401141D01*
X89518058Y-51411054D01*
X89441010Y-51425519D01*
X89360997Y-51445331D01*
X89272369Y-51471281D01*
X89221112Y-51487430D01*
X88996670Y-51572294D01*
X88784778Y-51678522D01*
X88586680Y-51804891D01*
X88403616Y-51950173D01*
X88236829Y-52113144D01*
X88087561Y-52292578D01*
X87957054Y-52487250D01*
X87846549Y-52695934D01*
X87757288Y-52917405D01*
X87749966Y-52939043D01*
X87717902Y-53038421D01*
X87692821Y-53125011D01*
X87673898Y-53204399D01*
X87660308Y-53282165D01*
X87651225Y-53363893D01*
X87645824Y-53455166D01*
X87643280Y-53561567D01*
X87642746Y-53664309D01*
X87643553Y-53787160D01*
X87643553Y-53787160D01*
G37*
X87643553Y-53787160D02*
X87646528Y-53890313D01*
X87652505Y-53979371D01*
X87662316Y-54059939D01*
X87676794Y-54137619D01*
X87696772Y-54218016D01*
X87723083Y-54306732D01*
X87751004Y-54392738D01*
X87837049Y-54612101D01*
X87944551Y-54819652D01*
X88072022Y-55014031D01*
X88217972Y-55193876D01*
X88380914Y-55357826D01*
X88559359Y-55504520D01*
X88751817Y-55632597D01*
X88956801Y-55740697D01*
X89172822Y-55827457D01*
X89387604Y-55889037D01*
X89485470Y-55911805D01*
X89482206Y-56683895D01*
X89478943Y-57455986D01*
X89371262Y-57484936D01*
X89174691Y-57550613D01*
X88984631Y-57639292D01*
X88803427Y-57748981D01*
X88633422Y-57877692D01*
X88476960Y-58023433D01*
X88336386Y-58184215D01*
X88214043Y-58358047D01*
X88112276Y-58542938D01*
X88103675Y-58561195D01*
X88020605Y-58769494D01*
X87961786Y-58982845D01*
X87927078Y-59199449D01*
X87916339Y-59417506D01*
X87929428Y-59635215D01*
X87966204Y-59850777D01*
X88026527Y-60062392D01*
X88110254Y-60268259D01*
X88217246Y-60466578D01*
X88257954Y-60530543D01*
X88351378Y-60655832D01*
X88464383Y-60781232D01*
X88591672Y-60902071D01*
X88727946Y-61013675D01*
X88867906Y-61111373D01*
X89006253Y-61190490D01*
X89006274Y-61190500D01*
X89190118Y-61273483D01*
X89370914Y-61334976D01*
X89554558Y-61376369D01*
X89746948Y-61399050D01*
X89916000Y-61404658D01*
X90042369Y-61402287D01*
X90153288Y-61394431D01*
X90258264Y-61379978D01*
X90366805Y-61357817D01*
X90413857Y-61346417D01*
X90621133Y-61281413D01*
X90820631Y-61193067D01*
X91009705Y-61082847D01*
X91185713Y-60952221D01*
X91287638Y-60861129D01*
X91441592Y-60699146D01*
X91572482Y-60529949D01*
X91681618Y-60351117D01*
X91770309Y-60160228D01*
X91839867Y-59954860D01*
X91888011Y-59751441D01*
X91901143Y-59659003D01*
X91909046Y-59549166D01*
X91911784Y-59429312D01*
X91909422Y-59306819D01*
X91902026Y-59189067D01*
X91889662Y-59083436D01*
X91881715Y-59037866D01*
X91824735Y-58813660D01*
X91746000Y-58602011D01*
X91646178Y-58403785D01*
X91525936Y-58219845D01*
X91385939Y-58051056D01*
X91226854Y-57898282D01*
X91049349Y-57762387D01*
X90854090Y-57644237D01*
X90776260Y-57604601D01*
X90716070Y-57576353D01*
X90659275Y-57552099D01*
X90600160Y-57529805D01*
X90533011Y-57507438D01*
X90452111Y-57482965D01*
X90362559Y-57457382D01*
X90359154Y-57451415D01*
X90356240Y-57434525D01*
X90353784Y-57405146D01*
X90351754Y-57361712D01*
X90350118Y-57302656D01*
X90348844Y-57226413D01*
X90347900Y-57131414D01*
X90347254Y-57016095D01*
X90346874Y-56878889D01*
X90346727Y-56718230D01*
X90346723Y-56682823D01*
X90346723Y-55912711D01*
X90487989Y-55876716D01*
X90713210Y-55806573D01*
X90927422Y-55714444D01*
X91129377Y-55601722D01*
X91317826Y-55469801D01*
X91491519Y-55320077D01*
X91649209Y-55153944D01*
X91789646Y-54972796D01*
X91911583Y-54778027D01*
X92013769Y-54571032D01*
X92094958Y-54353204D01*
X92153899Y-54125940D01*
X92177427Y-53990157D01*
X92184285Y-53925661D01*
X92189410Y-53844695D01*
X92192756Y-53753348D01*
X92194275Y-53657711D01*
X92193922Y-53563874D01*
X92191650Y-53477926D01*
X92187413Y-53405957D01*
X92182223Y-53360269D01*
X92150712Y-53189512D01*
X92113432Y-53037840D01*
X92092470Y-52968142D01*
X92007568Y-52743434D01*
X91901599Y-52531938D01*
X91775703Y-52334669D01*
X91631023Y-52152643D01*
X91468698Y-51986876D01*
X91289871Y-51838385D01*
X91095683Y-51708186D01*
X90887275Y-51597293D01*
X90665787Y-51506724D01*
X90432361Y-51437495D01*
X90353057Y-51419537D01*
X90305104Y-51410021D01*
X90260949Y-51402814D01*
X90215902Y-51397611D01*
X90165277Y-51394108D01*
X90104385Y-51392001D01*
X90028537Y-51390987D01*
X89933045Y-51390760D01*
X89909666Y-51390785D01*
X89874759Y-51391076D01*
X89874759Y-51681249D01*
X90002407Y-51682243D01*
X90125015Y-51688832D01*
X90235145Y-51701014D01*
X90296050Y-51711834D01*
X90517835Y-51770681D01*
X90724576Y-51849555D01*
X90917620Y-51949158D01*
X91098314Y-52070197D01*
X91268004Y-52213377D01*
X91284784Y-52229288D01*
X91441598Y-52396145D01*
X91575879Y-52574587D01*
X91687618Y-52764595D01*
X91776805Y-52966150D01*
X91843430Y-53179233D01*
X91886686Y-53398274D01*
X91896574Y-53498552D01*
X91900515Y-53614823D01*
X91898767Y-53738513D01*
X91891588Y-53861050D01*
X91879235Y-53973862D01*
X91867261Y-54044359D01*
X91809980Y-54265362D01*
X91731122Y-54473148D01*
X91630485Y-54668101D01*
X91507870Y-54850607D01*
X91363074Y-55021049D01*
X91349025Y-55035731D01*
X91192316Y-55183962D01*
X91029520Y-55309634D01*
X90856715Y-55415431D01*
X90669979Y-55504037D01*
X90657368Y-55509224D01*
X90579711Y-55537801D01*
X90489126Y-55566252D01*
X90393714Y-55592427D01*
X90301577Y-55614175D01*
X90220817Y-55629347D01*
X90188369Y-55633674D01*
X90142149Y-55639139D01*
X90102495Y-55644624D01*
X90083855Y-55647810D01*
X90055352Y-55653719D01*
X90055352Y-57705023D01*
X90083855Y-57710334D01*
X90108717Y-57714843D01*
X90151138Y-57722419D01*
X90203723Y-57731743D01*
X90228942Y-57736194D01*
X90420513Y-57782618D01*
X90605310Y-57852325D01*
X90781109Y-57943673D01*
X90945685Y-58055019D01*
X91096811Y-58184721D01*
X91232262Y-58331137D01*
X91349814Y-58492624D01*
X91421638Y-58616385D01*
X91504395Y-58797685D01*
X91563447Y-58981152D01*
X91599747Y-59170703D01*
X91614249Y-59370257D01*
X91614619Y-59409396D01*
X91610281Y-59553513D01*
X91596262Y-59683259D01*
X91571056Y-59808246D01*
X91533158Y-59938085D01*
X91530535Y-59945979D01*
X91453828Y-60136426D01*
X91355845Y-60314616D01*
X91238181Y-60478953D01*
X91102432Y-60627841D01*
X90950191Y-60759684D01*
X90783054Y-60872886D01*
X90602615Y-60965850D01*
X90454404Y-61023041D01*
X90351307Y-61055110D01*
X90259076Y-61078186D01*
X90169549Y-61093532D01*
X90074563Y-61102413D01*
X89965956Y-61106090D01*
X89916000Y-61106388D01*
X89813256Y-61105173D01*
X89730174Y-61101263D01*
X89661181Y-61094258D01*
X89600879Y-61083795D01*
X89400193Y-61031013D01*
X89216607Y-60961148D01*
X89047185Y-60872625D01*
X88888990Y-60763867D01*
X88739084Y-60633299D01*
X88712445Y-60607047D01*
X88581312Y-60461935D01*
X88472590Y-60311017D01*
X88383376Y-60149617D01*
X88310769Y-59973060D01*
X88300634Y-59943495D01*
X88262101Y-59813106D01*
X88236367Y-59687379D01*
X88221953Y-59556839D01*
X88217383Y-59412010D01*
X88217381Y-59409396D01*
X88221683Y-59265762D01*
X88235601Y-59136462D01*
X88260655Y-59011824D01*
X88298364Y-58882174D01*
X88301868Y-58871611D01*
X88376944Y-58685026D01*
X88472662Y-58510061D01*
X88587186Y-58348302D01*
X88718676Y-58201338D01*
X88865295Y-58070754D01*
X89025205Y-57958139D01*
X89196568Y-57865079D01*
X89377546Y-57793162D01*
X89566301Y-57743975D01*
X89618294Y-57734808D01*
X89673366Y-57725919D01*
X89719751Y-57718134D01*
X89751268Y-57712506D01*
X89760813Y-57710516D01*
X89763785Y-57704888D01*
X89766387Y-57688776D01*
X89768639Y-57660812D01*
X89770563Y-57619628D01*
X89772179Y-57563853D01*
X89773508Y-57492121D01*
X89774572Y-57403062D01*
X89775392Y-57295307D01*
X89775988Y-57167488D01*
X89776382Y-57018237D01*
X89776595Y-56846184D01*
X89776648Y-56680545D01*
X89776648Y-55654789D01*
X89716474Y-55647044D01*
X89529179Y-55616222D01*
X89356734Y-55572982D01*
X89190698Y-55514884D01*
X89057981Y-55456624D01*
X88863254Y-55350261D01*
X88683732Y-55224238D01*
X88520428Y-55079885D01*
X88374359Y-54918533D01*
X88246539Y-54741514D01*
X88137984Y-54550159D01*
X88049709Y-54345797D01*
X87982729Y-54129760D01*
X87956543Y-54012688D01*
X87944112Y-53925688D01*
X87936314Y-53820930D01*
X87933079Y-53705554D01*
X87934339Y-53586699D01*
X87940023Y-53471505D01*
X87950063Y-53367109D01*
X87963611Y-53284259D01*
X88022695Y-53061661D01*
X88102224Y-52853736D01*
X88202687Y-52659540D01*
X88324577Y-52478131D01*
X88468384Y-52308565D01*
X88476021Y-52300524D01*
X88641837Y-52144024D01*
X88819363Y-52009826D01*
X89009260Y-51897563D01*
X89212191Y-51806865D01*
X89428819Y-51737365D01*
X89535950Y-51711834D01*
X89634092Y-51696045D01*
X89749508Y-51685850D01*
X89874759Y-51681249D01*
X89874759Y-51391076D01*
X89787947Y-51391800D01*
X89685874Y-51394987D01*
X89597795Y-51401141D01*
X89518058Y-51411054D01*
X89441010Y-51425519D01*
X89360997Y-51445331D01*
X89272369Y-51471281D01*
X89221112Y-51487430D01*
X88996670Y-51572294D01*
X88784778Y-51678522D01*
X88586680Y-51804891D01*
X88403616Y-51950173D01*
X88236829Y-52113144D01*
X88087561Y-52292578D01*
X87957054Y-52487250D01*
X87846549Y-52695934D01*
X87757288Y-52917405D01*
X87749966Y-52939043D01*
X87717902Y-53038421D01*
X87692821Y-53125011D01*
X87673898Y-53204399D01*
X87660308Y-53282165D01*
X87651225Y-53363893D01*
X87645824Y-53455166D01*
X87643280Y-53561567D01*
X87642746Y-53664309D01*
X87643553Y-53787160D01*
D12*
X86463142Y-57491333D02*
X86510761Y-57443714D01*
X86558380Y-57300857D01*
X86558380Y-57205619D01*
X86510761Y-57062761D01*
X86415523Y-56967523D01*
X86320285Y-56919904D01*
X86129809Y-56872285D01*
X85986952Y-56872285D01*
X85796476Y-56919904D01*
X85701238Y-56967523D01*
X85606000Y-57062761D01*
X85558380Y-57205619D01*
X85558380Y-57300857D01*
X85606000Y-57443714D01*
X85653619Y-57491333D01*
X85558380Y-58348476D02*
X85558380Y-58158000D01*
X85606000Y-58062761D01*
X85653619Y-58015142D01*
X85796476Y-57919904D01*
X85986952Y-57872285D01*
X86367904Y-57872285D01*
X86463142Y-57919904D01*
X86510761Y-57967523D01*
X86558380Y-58062761D01*
X86558380Y-58253238D01*
X86510761Y-58348476D01*
X86463142Y-58396095D01*
X86367904Y-58443714D01*
X86129809Y-58443714D01*
X86034571Y-58396095D01*
X85986952Y-58348476D01*
X85939333Y-58253238D01*
X85939333Y-58062761D01*
X85986952Y-57967523D01*
X86034571Y-57919904D01*
X86129809Y-57872285D01*
X84685142Y-57491333D02*
X84732761Y-57443714D01*
X84780380Y-57300857D01*
X84780380Y-57205619D01*
X84732761Y-57062761D01*
X84637523Y-56967523D01*
X84542285Y-56919904D01*
X84351809Y-56872285D01*
X84208952Y-56872285D01*
X84018476Y-56919904D01*
X83923238Y-56967523D01*
X83828000Y-57062761D01*
X83780380Y-57205619D01*
X83780380Y-57300857D01*
X83828000Y-57443714D01*
X83875619Y-57491333D01*
X83780380Y-58396095D02*
X83780380Y-57919904D01*
X84256571Y-57872285D01*
X84208952Y-57919904D01*
X84161333Y-58015142D01*
X84161333Y-58253238D01*
X84208952Y-58348476D01*
X84256571Y-58396095D01*
X84351809Y-58443714D01*
X84589904Y-58443714D01*
X84685142Y-58396095D01*
X84732761Y-58348476D01*
X84780380Y-58253238D01*
X84780380Y-58015142D01*
X84732761Y-57919904D01*
X84685142Y-57872285D01*
X80494142Y-58634333D02*
X80541761Y-58586714D01*
X80589380Y-58443857D01*
X80589380Y-58348619D01*
X80541761Y-58205761D01*
X80446523Y-58110523D01*
X80351285Y-58062904D01*
X80160809Y-58015285D01*
X80017952Y-58015285D01*
X79827476Y-58062904D01*
X79732238Y-58110523D01*
X79637000Y-58205761D01*
X79589380Y-58348619D01*
X79589380Y-58443857D01*
X79637000Y-58586714D01*
X79684619Y-58634333D01*
X80589380Y-59586714D02*
X80589380Y-59015285D01*
X80589380Y-59301000D02*
X79589380Y-59301000D01*
X79732238Y-59205761D01*
X79827476Y-59110523D01*
X79875095Y-59015285D01*
M02*
