G04 #@! TF.GenerationSoftware,KiCad,Pcbnew,(6.0.0-rc1-dev-1538-g72c885797)*
G04 #@! TF.CreationDate,2019-05-02T16:21:49-07:00
G04 #@! TF.ProjectId,recoil-grenade-refit,7265636f-696c-42d6-9772-656e6164652d,rev?*
G04 #@! TF.SameCoordinates,Original*
G04 #@! TF.FileFunction,Legend,Top*
G04 #@! TF.FilePolarity,Positive*
%FSLAX46Y46*%
G04 Gerber Fmt 4.6, Leading zero omitted, Abs format (unit mm)*
G04 Created by KiCad (PCBNEW (6.0.0-rc1-dev-1538-g72c885797)) date 5/2/2019 4:21:49 PM*
%MOMM*%
%LPD*%
G04 APERTURE LIST*
%ADD10C,0.127000*%
%ADD11C,0.150000*%
%ADD12C,0.120000*%
G04 APERTURE END LIST*
D10*
X79350809Y-67261619D02*
X79108904Y-67430952D01*
X79350809Y-67551904D02*
X78842809Y-67551904D01*
X78842809Y-67358380D01*
X78867000Y-67310000D01*
X78891190Y-67285809D01*
X78939571Y-67261619D01*
X79012142Y-67261619D01*
X79060523Y-67285809D01*
X79084714Y-67310000D01*
X79108904Y-67358380D01*
X79108904Y-67551904D01*
X79326619Y-66850380D02*
X79350809Y-66898761D01*
X79350809Y-66995523D01*
X79326619Y-67043904D01*
X79278238Y-67068095D01*
X79084714Y-67068095D01*
X79036333Y-67043904D01*
X79012142Y-66995523D01*
X79012142Y-66898761D01*
X79036333Y-66850380D01*
X79084714Y-66826190D01*
X79133095Y-66826190D01*
X79181476Y-67068095D01*
X79326619Y-66390761D02*
X79350809Y-66439142D01*
X79350809Y-66535904D01*
X79326619Y-66584285D01*
X79302428Y-66608476D01*
X79254047Y-66632666D01*
X79108904Y-66632666D01*
X79060523Y-66608476D01*
X79036333Y-66584285D01*
X79012142Y-66535904D01*
X79012142Y-66439142D01*
X79036333Y-66390761D01*
X79350809Y-66100476D02*
X79326619Y-66148857D01*
X79302428Y-66173047D01*
X79254047Y-66197238D01*
X79108904Y-66197238D01*
X79060523Y-66173047D01*
X79036333Y-66148857D01*
X79012142Y-66100476D01*
X79012142Y-66027904D01*
X79036333Y-65979523D01*
X79060523Y-65955333D01*
X79108904Y-65931142D01*
X79254047Y-65931142D01*
X79302428Y-65955333D01*
X79326619Y-65979523D01*
X79350809Y-66027904D01*
X79350809Y-66100476D01*
X79350809Y-65713428D02*
X79012142Y-65713428D01*
X78842809Y-65713428D02*
X78867000Y-65737619D01*
X78891190Y-65713428D01*
X78867000Y-65689238D01*
X78842809Y-65713428D01*
X78891190Y-65713428D01*
X79350809Y-65398952D02*
X79326619Y-65447333D01*
X79278238Y-65471523D01*
X78842809Y-65471523D01*
X78867000Y-64552285D02*
X78842809Y-64600666D01*
X78842809Y-64673238D01*
X78867000Y-64745809D01*
X78915380Y-64794190D01*
X78963761Y-64818380D01*
X79060523Y-64842571D01*
X79133095Y-64842571D01*
X79229857Y-64818380D01*
X79278238Y-64794190D01*
X79326619Y-64745809D01*
X79350809Y-64673238D01*
X79350809Y-64624857D01*
X79326619Y-64552285D01*
X79302428Y-64528095D01*
X79133095Y-64528095D01*
X79133095Y-64624857D01*
X79350809Y-64310380D02*
X79012142Y-64310380D01*
X79108904Y-64310380D02*
X79060523Y-64286190D01*
X79036333Y-64262000D01*
X79012142Y-64213619D01*
X79012142Y-64165238D01*
X79326619Y-63802380D02*
X79350809Y-63850761D01*
X79350809Y-63947523D01*
X79326619Y-63995904D01*
X79278238Y-64020095D01*
X79084714Y-64020095D01*
X79036333Y-63995904D01*
X79012142Y-63947523D01*
X79012142Y-63850761D01*
X79036333Y-63802380D01*
X79084714Y-63778190D01*
X79133095Y-63778190D01*
X79181476Y-64020095D01*
X79012142Y-63560476D02*
X79350809Y-63560476D01*
X79060523Y-63560476D02*
X79036333Y-63536285D01*
X79012142Y-63487904D01*
X79012142Y-63415333D01*
X79036333Y-63366952D01*
X79084714Y-63342761D01*
X79350809Y-63342761D01*
X79350809Y-62883142D02*
X79084714Y-62883142D01*
X79036333Y-62907333D01*
X79012142Y-62955714D01*
X79012142Y-63052476D01*
X79036333Y-63100857D01*
X79326619Y-62883142D02*
X79350809Y-62931523D01*
X79350809Y-63052476D01*
X79326619Y-63100857D01*
X79278238Y-63125047D01*
X79229857Y-63125047D01*
X79181476Y-63100857D01*
X79157285Y-63052476D01*
X79157285Y-62931523D01*
X79133095Y-62883142D01*
X79350809Y-62423523D02*
X78842809Y-62423523D01*
X79326619Y-62423523D02*
X79350809Y-62471904D01*
X79350809Y-62568666D01*
X79326619Y-62617047D01*
X79302428Y-62641238D01*
X79254047Y-62665428D01*
X79108904Y-62665428D01*
X79060523Y-62641238D01*
X79036333Y-62617047D01*
X79012142Y-62568666D01*
X79012142Y-62471904D01*
X79036333Y-62423523D01*
X79326619Y-61988095D02*
X79350809Y-62036476D01*
X79350809Y-62133238D01*
X79326619Y-62181619D01*
X79278238Y-62205809D01*
X79084714Y-62205809D01*
X79036333Y-62181619D01*
X79012142Y-62133238D01*
X79012142Y-62036476D01*
X79036333Y-61988095D01*
X79084714Y-61963904D01*
X79133095Y-61963904D01*
X79181476Y-62205809D01*
X80215619Y-67914761D02*
X80239809Y-67842190D01*
X80239809Y-67721238D01*
X80215619Y-67672857D01*
X80191428Y-67648666D01*
X80143047Y-67624476D01*
X80094666Y-67624476D01*
X80046285Y-67648666D01*
X80022095Y-67672857D01*
X79997904Y-67721238D01*
X79973714Y-67818000D01*
X79949523Y-67866380D01*
X79925333Y-67890571D01*
X79876952Y-67914761D01*
X79828571Y-67914761D01*
X79780190Y-67890571D01*
X79756000Y-67866380D01*
X79731809Y-67818000D01*
X79731809Y-67697047D01*
X79756000Y-67624476D01*
X79731809Y-67479333D02*
X79731809Y-67189047D01*
X80239809Y-67334190D02*
X79731809Y-67334190D01*
X80239809Y-67019714D02*
X79731809Y-67019714D01*
X80094666Y-66850380D01*
X79731809Y-66681047D01*
X80239809Y-66681047D01*
X79731809Y-66487523D02*
X79731809Y-66173047D01*
X79925333Y-66342380D01*
X79925333Y-66269809D01*
X79949523Y-66221428D01*
X79973714Y-66197238D01*
X80022095Y-66173047D01*
X80143047Y-66173047D01*
X80191428Y-66197238D01*
X80215619Y-66221428D01*
X80239809Y-66269809D01*
X80239809Y-66414952D01*
X80215619Y-66463333D01*
X80191428Y-66487523D01*
X79780190Y-65979523D02*
X79756000Y-65955333D01*
X79731809Y-65906952D01*
X79731809Y-65786000D01*
X79756000Y-65737619D01*
X79780190Y-65713428D01*
X79828571Y-65689238D01*
X79876952Y-65689238D01*
X79949523Y-65713428D01*
X80239809Y-66003714D01*
X80239809Y-65689238D01*
X80239809Y-64794190D02*
X79997904Y-64963523D01*
X80239809Y-65084476D02*
X79731809Y-65084476D01*
X79731809Y-64890952D01*
X79756000Y-64842571D01*
X79780190Y-64818380D01*
X79828571Y-64794190D01*
X79901142Y-64794190D01*
X79949523Y-64818380D01*
X79973714Y-64842571D01*
X79997904Y-64890952D01*
X79997904Y-65084476D01*
X80215619Y-64382952D02*
X80239809Y-64431333D01*
X80239809Y-64528095D01*
X80215619Y-64576476D01*
X80167238Y-64600666D01*
X79973714Y-64600666D01*
X79925333Y-64576476D01*
X79901142Y-64528095D01*
X79901142Y-64431333D01*
X79925333Y-64382952D01*
X79973714Y-64358761D01*
X80022095Y-64358761D01*
X80070476Y-64600666D01*
X79901142Y-64213619D02*
X79901142Y-64020095D01*
X80239809Y-64141047D02*
X79804380Y-64141047D01*
X79756000Y-64116857D01*
X79731809Y-64068476D01*
X79731809Y-64020095D01*
X80239809Y-63850761D02*
X79901142Y-63850761D01*
X79731809Y-63850761D02*
X79756000Y-63874952D01*
X79780190Y-63850761D01*
X79756000Y-63826571D01*
X79731809Y-63850761D01*
X79780190Y-63850761D01*
X79901142Y-63681428D02*
X79901142Y-63487904D01*
X79731809Y-63608857D02*
X80167238Y-63608857D01*
X80215619Y-63584666D01*
X80239809Y-63536285D01*
X80239809Y-63487904D01*
X80239809Y-62931523D02*
X79731809Y-62931523D01*
X79731809Y-62738000D01*
X79756000Y-62689619D01*
X79780190Y-62665428D01*
X79828571Y-62641238D01*
X79901142Y-62641238D01*
X79949523Y-62665428D01*
X79973714Y-62689619D01*
X79997904Y-62738000D01*
X79997904Y-62931523D01*
X80191428Y-62133238D02*
X80215619Y-62157428D01*
X80239809Y-62230000D01*
X80239809Y-62278380D01*
X80215619Y-62350952D01*
X80167238Y-62399333D01*
X80118857Y-62423523D01*
X80022095Y-62447714D01*
X79949523Y-62447714D01*
X79852761Y-62423523D01*
X79804380Y-62399333D01*
X79756000Y-62350952D01*
X79731809Y-62278380D01*
X79731809Y-62230000D01*
X79756000Y-62157428D01*
X79780190Y-62133238D01*
X79973714Y-61746190D02*
X79997904Y-61673619D01*
X80022095Y-61649428D01*
X80070476Y-61625238D01*
X80143047Y-61625238D01*
X80191428Y-61649428D01*
X80215619Y-61673619D01*
X80239809Y-61722000D01*
X80239809Y-61915523D01*
X79731809Y-61915523D01*
X79731809Y-61746190D01*
X79756000Y-61697809D01*
X79780190Y-61673619D01*
X79828571Y-61649428D01*
X79876952Y-61649428D01*
X79925333Y-61673619D01*
X79949523Y-61697809D01*
X79973714Y-61746190D01*
X79973714Y-61915523D01*
X80620809Y-65544095D02*
X81128809Y-65374761D01*
X80620809Y-65205428D01*
X81128809Y-64770000D02*
X81128809Y-65060285D01*
X81128809Y-64915142D02*
X80620809Y-64915142D01*
X80693380Y-64963523D01*
X80741761Y-65011904D01*
X80765952Y-65060285D01*
X81080428Y-64552285D02*
X81104619Y-64528095D01*
X81128809Y-64552285D01*
X81104619Y-64576476D01*
X81080428Y-64552285D01*
X81128809Y-64552285D01*
X80620809Y-64213619D02*
X80620809Y-64165238D01*
X80645000Y-64116857D01*
X80669190Y-64092666D01*
X80717571Y-64068476D01*
X80814333Y-64044285D01*
X80935285Y-64044285D01*
X81032047Y-64068476D01*
X81080428Y-64092666D01*
X81104619Y-64116857D01*
X81128809Y-64165238D01*
X81128809Y-64213619D01*
X81104619Y-64262000D01*
X81080428Y-64286190D01*
X81032047Y-64310380D01*
X80935285Y-64334571D01*
X80814333Y-64334571D01*
X80717571Y-64310380D01*
X80669190Y-64286190D01*
X80645000Y-64262000D01*
X80620809Y-64213619D01*
D11*
X89963904Y-52395380D02*
X89963904Y-51395380D01*
X90202000Y-51395380D01*
X90344857Y-51443000D01*
X90440095Y-51538238D01*
X90487714Y-51633476D01*
X90535333Y-51823952D01*
X90535333Y-51966809D01*
X90487714Y-52157285D01*
X90440095Y-52252523D01*
X90344857Y-52347761D01*
X90202000Y-52395380D01*
X89963904Y-52395380D01*
X90963904Y-51871571D02*
X91297238Y-51871571D01*
X91440095Y-52395380D02*
X90963904Y-52395380D01*
X90963904Y-51395380D01*
X91440095Y-51395380D01*
X92202000Y-51871571D02*
X92344857Y-51919190D01*
X92392476Y-51966809D01*
X92440095Y-52062047D01*
X92440095Y-52204904D01*
X92392476Y-52300142D01*
X92344857Y-52347761D01*
X92249619Y-52395380D01*
X91868666Y-52395380D01*
X91868666Y-51395380D01*
X92202000Y-51395380D01*
X92297238Y-51443000D01*
X92344857Y-51490619D01*
X92392476Y-51585857D01*
X92392476Y-51681095D01*
X92344857Y-51776333D01*
X92297238Y-51823952D01*
X92202000Y-51871571D01*
X91868666Y-51871571D01*
X92868666Y-51395380D02*
X92868666Y-52204904D01*
X92916285Y-52300142D01*
X92963904Y-52347761D01*
X93059142Y-52395380D01*
X93249619Y-52395380D01*
X93344857Y-52347761D01*
X93392476Y-52300142D01*
X93440095Y-52204904D01*
X93440095Y-51395380D01*
X94440095Y-51443000D02*
X94344857Y-51395380D01*
X94202000Y-51395380D01*
X94059142Y-51443000D01*
X93963904Y-51538238D01*
X93916285Y-51633476D01*
X93868666Y-51823952D01*
X93868666Y-51966809D01*
X93916285Y-52157285D01*
X93963904Y-52252523D01*
X94059142Y-52347761D01*
X94202000Y-52395380D01*
X94297238Y-52395380D01*
X94440095Y-52347761D01*
X94487714Y-52300142D01*
X94487714Y-51966809D01*
X94297238Y-51966809D01*
D10*
X81509809Y-68610238D02*
X81509809Y-68319952D01*
X82017809Y-68465095D02*
X81509809Y-68465095D01*
X82017809Y-68078047D02*
X81993619Y-68126428D01*
X81969428Y-68150619D01*
X81921047Y-68174809D01*
X81775904Y-68174809D01*
X81727523Y-68150619D01*
X81703333Y-68126428D01*
X81679142Y-68078047D01*
X81679142Y-68005476D01*
X81703333Y-67957095D01*
X81727523Y-67932904D01*
X81775904Y-67908714D01*
X81921047Y-67908714D01*
X81969428Y-67932904D01*
X81993619Y-67957095D01*
X82017809Y-68005476D01*
X82017809Y-68078047D01*
X82017809Y-67303952D02*
X81679142Y-67303952D01*
X81727523Y-67303952D02*
X81703333Y-67279761D01*
X81679142Y-67231380D01*
X81679142Y-67158809D01*
X81703333Y-67110428D01*
X81751714Y-67086238D01*
X82017809Y-67086238D01*
X81751714Y-67086238D02*
X81703333Y-67062047D01*
X81679142Y-67013666D01*
X81679142Y-66941095D01*
X81703333Y-66892714D01*
X81751714Y-66868523D01*
X82017809Y-66868523D01*
X82017809Y-66408904D02*
X81751714Y-66408904D01*
X81703333Y-66433095D01*
X81679142Y-66481476D01*
X81679142Y-66578238D01*
X81703333Y-66626619D01*
X81993619Y-66408904D02*
X82017809Y-66457285D01*
X82017809Y-66578238D01*
X81993619Y-66626619D01*
X81945238Y-66650809D01*
X81896857Y-66650809D01*
X81848476Y-66626619D01*
X81824285Y-66578238D01*
X81824285Y-66457285D01*
X81800095Y-66408904D01*
X82017809Y-66167000D02*
X81679142Y-66167000D01*
X81509809Y-66167000D02*
X81534000Y-66191190D01*
X81558190Y-66167000D01*
X81534000Y-66142809D01*
X81509809Y-66167000D01*
X81558190Y-66167000D01*
X81679142Y-65925095D02*
X82017809Y-65925095D01*
X81727523Y-65925095D02*
X81703333Y-65900904D01*
X81679142Y-65852523D01*
X81679142Y-65779952D01*
X81703333Y-65731571D01*
X81751714Y-65707380D01*
X82017809Y-65707380D01*
X82017809Y-65078428D02*
X81509809Y-65078428D01*
X81509809Y-64884904D01*
X81534000Y-64836523D01*
X81558190Y-64812333D01*
X81606571Y-64788142D01*
X81679142Y-64788142D01*
X81727523Y-64812333D01*
X81751714Y-64836523D01*
X81775904Y-64884904D01*
X81775904Y-65078428D01*
X81969428Y-64280142D02*
X81993619Y-64304333D01*
X82017809Y-64376904D01*
X82017809Y-64425285D01*
X81993619Y-64497857D01*
X81945238Y-64546238D01*
X81896857Y-64570428D01*
X81800095Y-64594619D01*
X81727523Y-64594619D01*
X81630761Y-64570428D01*
X81582380Y-64546238D01*
X81534000Y-64497857D01*
X81509809Y-64425285D01*
X81509809Y-64376904D01*
X81534000Y-64304333D01*
X81558190Y-64280142D01*
X81751714Y-63893095D02*
X81775904Y-63820523D01*
X81800095Y-63796333D01*
X81848476Y-63772142D01*
X81921047Y-63772142D01*
X81969428Y-63796333D01*
X81993619Y-63820523D01*
X82017809Y-63868904D01*
X82017809Y-64062428D01*
X81509809Y-64062428D01*
X81509809Y-63893095D01*
X81534000Y-63844714D01*
X81558190Y-63820523D01*
X81606571Y-63796333D01*
X81654952Y-63796333D01*
X81703333Y-63820523D01*
X81727523Y-63844714D01*
X81751714Y-63893095D01*
X81751714Y-64062428D01*
D11*
X90551047Y-62366428D02*
X91312952Y-62366428D01*
X90670095Y-64397380D02*
X90670095Y-63397380D01*
X90908190Y-63397380D01*
X91051047Y-63445000D01*
X91146285Y-63540238D01*
X91193904Y-63635476D01*
X91241523Y-63825952D01*
X91241523Y-63968809D01*
X91193904Y-64159285D01*
X91146285Y-64254523D01*
X91051047Y-64349761D01*
X90908190Y-64397380D01*
X90670095Y-64397380D01*
X91241523Y-65952142D02*
X91193904Y-65999761D01*
X91051047Y-66047380D01*
X90955809Y-66047380D01*
X90812952Y-65999761D01*
X90717714Y-65904523D01*
X90670095Y-65809285D01*
X90622476Y-65618809D01*
X90622476Y-65475952D01*
X90670095Y-65285476D01*
X90717714Y-65190238D01*
X90812952Y-65095000D01*
X90955809Y-65047380D01*
X91051047Y-65047380D01*
X91193904Y-65095000D01*
X91241523Y-65142619D01*
X90551047Y-67316428D02*
X91312952Y-67316428D01*
X90932000Y-67697380D02*
X90932000Y-66935476D01*
X87375952Y-67364571D02*
X86614047Y-67364571D01*
X86995000Y-66983619D02*
X86995000Y-67745523D01*
X87280714Y-65381238D02*
X87137857Y-65333619D01*
X86899761Y-65333619D01*
X86804523Y-65381238D01*
X86756904Y-65428857D01*
X86709285Y-65524095D01*
X86709285Y-65619333D01*
X86756904Y-65714571D01*
X86804523Y-65762190D01*
X86899761Y-65809809D01*
X87090238Y-65857428D01*
X87185476Y-65905047D01*
X87233095Y-65952666D01*
X87280714Y-66047904D01*
X87280714Y-66143142D01*
X87233095Y-66238380D01*
X87185476Y-66286000D01*
X87090238Y-66333619D01*
X86852142Y-66333619D01*
X86709285Y-66286000D01*
X87375952Y-64064571D02*
X86614047Y-64064571D01*
D12*
X82309000Y-69910000D02*
X83131470Y-69910000D01*
X85016530Y-69910000D02*
X85839000Y-69910000D01*
X83746530Y-69910000D02*
X84401470Y-69910000D01*
X82309000Y-62355000D02*
X82309000Y-69910000D01*
X85839000Y-60900000D02*
X85839000Y-69910000D01*
X82309000Y-62355000D02*
X82875529Y-62355000D01*
X84002471Y-62355000D02*
X84145529Y-62355000D01*
X84199000Y-62301529D02*
X84199000Y-62158471D01*
X84199000Y-61031529D02*
X84199000Y-60900000D01*
X84199000Y-60900000D02*
X84401470Y-60900000D01*
X85016530Y-60900000D02*
X85839000Y-60900000D01*
X82309000Y-61595000D02*
X82309000Y-60835000D01*
X82309000Y-60835000D02*
X83439000Y-60835000D01*
D11*
X83119000Y-59101400D02*
X87569000Y-59101400D01*
X81594000Y-52201400D02*
X87569000Y-52201400D01*
D12*
X81017000Y-53930000D02*
X81017000Y-55130000D01*
X79257000Y-55130000D02*
X79257000Y-53930000D01*
X94675000Y-51241000D02*
X94675000Y-48581000D01*
X81915000Y-51241000D02*
X94675000Y-51241000D01*
X81915000Y-48581000D02*
X94675000Y-48581000D01*
X81915000Y-51241000D02*
X81915000Y-48581000D01*
X80645000Y-51241000D02*
X79315000Y-51241000D01*
X79315000Y-51241000D02*
X79315000Y-49911000D01*
X90230000Y-61916000D02*
X87570000Y-61916000D01*
X90230000Y-67056000D02*
X90230000Y-61916000D01*
X87570000Y-67056000D02*
X87570000Y-61916000D01*
X90230000Y-67056000D02*
X87570000Y-67056000D01*
X90230000Y-68326000D02*
X90230000Y-69656000D01*
X90230000Y-69656000D02*
X88900000Y-69656000D01*
X94167000Y-59757000D02*
X91507000Y-59757000D01*
X94167000Y-67437000D02*
X94167000Y-59757000D01*
X91507000Y-67437000D02*
X91507000Y-59757000D01*
X94167000Y-67437000D02*
X91507000Y-67437000D01*
X94167000Y-68707000D02*
X94167000Y-70037000D01*
X94167000Y-70037000D02*
X92837000Y-70037000D01*
X92230000Y-57111000D02*
X93230000Y-57111000D01*
X93230000Y-55411000D02*
X92230000Y-55411000D01*
X92230000Y-55002800D02*
X93230000Y-55002800D01*
X93230000Y-53302800D02*
X92230000Y-53302800D01*
X92230000Y-59143000D02*
X93230000Y-59143000D01*
X93230000Y-57443000D02*
X92230000Y-57443000D01*
D11*
X80986380Y-61801333D02*
X81700666Y-61801333D01*
X81843523Y-61848952D01*
X81938761Y-61944190D01*
X81986380Y-62087047D01*
X81986380Y-62182285D01*
X81986380Y-60801333D02*
X81986380Y-61372761D01*
X81986380Y-61087047D02*
X80986380Y-61087047D01*
X81129238Y-61182285D01*
X81224476Y-61277523D01*
X81272095Y-61372761D01*
X84455095Y-57237380D02*
X84455095Y-58046904D01*
X84502714Y-58142142D01*
X84550333Y-58189761D01*
X84645571Y-58237380D01*
X84836047Y-58237380D01*
X84931285Y-58189761D01*
X84978904Y-58142142D01*
X85026523Y-58046904D01*
X85026523Y-57237380D01*
X86026523Y-58237380D02*
X85455095Y-58237380D01*
X85740809Y-58237380D02*
X85740809Y-57237380D01*
X85645571Y-57380238D01*
X85550333Y-57475476D01*
X85455095Y-57523095D01*
D10*
X79350809Y-57488666D02*
X79108904Y-57658000D01*
X79350809Y-57778952D02*
X78842809Y-57778952D01*
X78842809Y-57585428D01*
X78867000Y-57537047D01*
X78891190Y-57512857D01*
X78939571Y-57488666D01*
X79012142Y-57488666D01*
X79060523Y-57512857D01*
X79084714Y-57537047D01*
X79108904Y-57585428D01*
X79108904Y-57778952D01*
X79350809Y-57004857D02*
X79350809Y-57295142D01*
X79350809Y-57150000D02*
X78842809Y-57150000D01*
X78915380Y-57198380D01*
X78963761Y-57246761D01*
X78987952Y-57295142D01*
X79078666Y-51410809D02*
X79078666Y-51773666D01*
X79054476Y-51846238D01*
X79006095Y-51894619D01*
X78933523Y-51918809D01*
X78885142Y-51918809D01*
X79538285Y-51580142D02*
X79538285Y-51918809D01*
X79417333Y-51386619D02*
X79296380Y-51749476D01*
X79610857Y-51749476D01*
X87605809Y-61510333D02*
X87968666Y-61510333D01*
X88041238Y-61534523D01*
X88089619Y-61582904D01*
X88113809Y-61655476D01*
X88113809Y-61703857D01*
X87605809Y-61316809D02*
X87605809Y-61002333D01*
X87799333Y-61171666D01*
X87799333Y-61099095D01*
X87823523Y-61050714D01*
X87847714Y-61026523D01*
X87896095Y-61002333D01*
X88017047Y-61002333D01*
X88065428Y-61026523D01*
X88089619Y-61050714D01*
X88113809Y-61099095D01*
X88113809Y-61244238D01*
X88089619Y-61292619D01*
X88065428Y-61316809D01*
X90780809Y-60240333D02*
X91143666Y-60240333D01*
X91216238Y-60264523D01*
X91264619Y-60312904D01*
X91288809Y-60385476D01*
X91288809Y-60433857D01*
X90829190Y-60022619D02*
X90805000Y-59998428D01*
X90780809Y-59950047D01*
X90780809Y-59829095D01*
X90805000Y-59780714D01*
X90829190Y-59756523D01*
X90877571Y-59732333D01*
X90925952Y-59732333D01*
X90998523Y-59756523D01*
X91288809Y-60046809D01*
X91288809Y-59732333D01*
X89831333Y-56442428D02*
X89807142Y-56466619D01*
X89734571Y-56490809D01*
X89686190Y-56490809D01*
X89613619Y-56466619D01*
X89565238Y-56418238D01*
X89541047Y-56369857D01*
X89516857Y-56273095D01*
X89516857Y-56200523D01*
X89541047Y-56103761D01*
X89565238Y-56055380D01*
X89613619Y-56007000D01*
X89686190Y-55982809D01*
X89734571Y-55982809D01*
X89807142Y-56007000D01*
X89831333Y-56031190D01*
X90266761Y-56152142D02*
X90266761Y-56490809D01*
X90145809Y-55958619D02*
X90024857Y-56321476D01*
X90339333Y-56321476D01*
X89831333Y-54410428D02*
X89807142Y-54434619D01*
X89734571Y-54458809D01*
X89686190Y-54458809D01*
X89613619Y-54434619D01*
X89565238Y-54386238D01*
X89541047Y-54337857D01*
X89516857Y-54241095D01*
X89516857Y-54168523D01*
X89541047Y-54071761D01*
X89565238Y-54023380D01*
X89613619Y-53975000D01*
X89686190Y-53950809D01*
X89734571Y-53950809D01*
X89807142Y-53975000D01*
X89831333Y-53999190D01*
X90000666Y-53950809D02*
X90315142Y-53950809D01*
X90145809Y-54144333D01*
X90218380Y-54144333D01*
X90266761Y-54168523D01*
X90290952Y-54192714D01*
X90315142Y-54241095D01*
X90315142Y-54362047D01*
X90290952Y-54410428D01*
X90266761Y-54434619D01*
X90218380Y-54458809D01*
X90073238Y-54458809D01*
X90024857Y-54434619D01*
X90000666Y-54410428D01*
X89831333Y-58474428D02*
X89807142Y-58498619D01*
X89734571Y-58522809D01*
X89686190Y-58522809D01*
X89613619Y-58498619D01*
X89565238Y-58450238D01*
X89541047Y-58401857D01*
X89516857Y-58305095D01*
X89516857Y-58232523D01*
X89541047Y-58135761D01*
X89565238Y-58087380D01*
X89613619Y-58039000D01*
X89686190Y-58014809D01*
X89734571Y-58014809D01*
X89807142Y-58039000D01*
X89831333Y-58063190D01*
X90024857Y-58063190D02*
X90049047Y-58039000D01*
X90097428Y-58014809D01*
X90218380Y-58014809D01*
X90266761Y-58039000D01*
X90290952Y-58063190D01*
X90315142Y-58111571D01*
X90315142Y-58159952D01*
X90290952Y-58232523D01*
X90000666Y-58522809D01*
X90315142Y-58522809D01*
M02*
